^C:\USERS\TOSHIBAI3\DOCUMENTS\VISUAL STUDIO 2013\PROJECTS\PONGV2\PONGV2\STDAFX.CPP
/c /I"../../../../SFML-2.3.2/include" /ZI /nologo /W3 /WX- /sdl /Od /Oy- /D SFML_STATIC /D WIN32 /D _DEBUG /D _CONSOLE /D _LIB /D _UNICODE /D UNICODE /Gm /EHsc /RTC1 /MDd /GS /fp:precise /Zc:wchar_t /Zc:forScope /Yc"stdafx.h" /Fp"DEBUG\PONGV2.PCH" /Fo"DEBUG\\" /Fd"DEBUG\VC120.PDB" /Gd /TP /analyze- C:\USERS\TOSHIBAI3\DOCUMENTS\VISUAL STUDIO 2013\PROJECTS\PONGV2\PONGV2\STDAFX.CPP
^C:\USERS\TOSHIBAI3\DOCUMENTS\VISUAL STUDIO 2013\PROJECTS\PONGV2\PONGV2\PONGV2.CPP
/c /I"../../../../SFML-2.3.2/include" /ZI /nologo /W3 /WX- /sdl /Od /Oy- /D SFML_STATIC /D WIN32 /D _DEBUG /D _CONSOLE /D _LIB /D _UNICODE /D UNICODE /Gm /EHsc /RTC1 /MDd /GS /fp:precise /Zc:wchar_t /Zc:forScope /Yu"stdafx.h" /Fp"DEBUG\PONGV2.PCH" /Fo"DEBUG\\" /Fd"DEBUG\VC120.PDB" /Gd /TP /analyze- C:\USERS\TOSHIBAI3\DOCUMENTS\VISUAL STUDIO 2013\PROJECTS\PONGV2\PONGV2\PONGV2.CPP
^C:\USERS\PHIL MCKRAKEN\DOCUMENTS\VISUAL STUDIO 2015\PROJECTS\PONGV2\PONGV2\STDAFX.CPP
/c /I"../../../../SFML-2.3.2/INCLUDE" /ZI /nologo /W3 /WX- /sdl /Od /Oy- /D SFML_STATIC /D WIN32 /D _DEBUG /D _CONSOLE /D _LIB /D _UNICODE /D UNICODE /Gm /EHsc /RTC1 /MDd /GS /fp:precise /Zc:wchar_t /Zc:forScope /Zc:inline /Yc"stdafx.h" /Fp"DEBUG\PONGV2.PCH" /Fo"DEBUG\\" /Fd"DEBUG\VC140.PDB" /Gd /TP /analyze- C:\USERS\PHIL MCKRAKEN\DOCUMENTS\VISUAL STUDIO 2015\PROJECTS\PONGV2\PONGV2\STDAFX.CPP
^C:\USERS\PHIL MCKRAKEN\DOCUMENTS\VISUAL STUDIO 2015\PROJECTS\PONGV2\PONGV2\PONGV2.CPP
/c /I"../../../../SFML-2.3.2/INCLUDE" /ZI /nologo /W3 /WX- /sdl /Od /Oy- /D SFML_STATIC /D WIN32 /D _DEBUG /D _CONSOLE /D _LIB /D _UNICODE /D UNICODE /Gm /EHsc /RTC1 /MDd /GS /fp:precise /Zc:wchar_t /Zc:forScope /Zc:inline /Yu"stdafx.h" /Fp"DEBUG\PONGV2.PCH" /Fo"DEBUG\\" /Fd"DEBUG\VC140.PDB" /Gd /TP /analyze- C:\USERS\PHIL MCKRAKEN\DOCUMENTS\VISUAL STUDIO 2015\PROJECTS\PONGV2\PONGV2\PONGV2.CPP
