^C:\USERS\TOSHIBAI3\DOCUMENTS\VISUAL STUDIO 2013\PROJECTS\PONGV2\PONGV2\DEBUG\PONGV2.OBJ|C:\USERS\TOSHIBAI3\DOCUMENTS\VISUAL STUDIO 2013\PROJECTS\PONGV2\PONGV2\DEBUG\STDAFX.OBJ
C:\USERS\TOSHIBAI3\DOCUMENTS\VISUAL STUDIO 2013\PROJECTS\PONGV2\DEBUG\PONGV2.ILK
C:\USERS\TOSHIBAI3\DOCUMENTS\VISUAL STUDIO 2013\PROJECTS\PONGV2\DEBUG\PONGV2.EXE
C:\USERS\TOSHIBAI3\DOCUMENTS\VISUAL STUDIO 2013\PROJECTS\PONGV2\DEBUG\PONGV2.PDB
