^C:\USERS\PHIL MCKRAKEN\DOCUMENTS\VISUAL STUDIO 2015\PROJECTS\PONGV2\PONGV2\STDAFX.CPP
/c /I"../../../../SFML-2.3.2/INCLUDE" /ZI /nologo /W3 /WX- /sdl /Od /D SFML_STATIC /D WIN32 /D _DEBUG /D _CONSOLE /D _LIB /D _UNICODE /D UNICODE /Gm /EHsc /RTC1 /MDd /GS /fp:precise /Zc:wchar_t /Zc:forScope /Zc:inline /Yc"stdafx.h" /Fp"X64\DEBUG\PONGV2.PCH" /Fo"X64\DEBUG\\" /Fd"X64\DEBUG\VC140.PDB" /Gd /TP C:\USERS\PHIL MCKRAKEN\DOCUMENTS\VISUAL STUDIO 2015\PROJECTS\PONGV2\PONGV2\STDAFX.CPP
^C:\USERS\PHIL MCKRAKEN\DOCUMENTS\VISUAL STUDIO 2015\PROJECTS\PONGV2\PONGV2\PONGV2.CPP
/c /I"../../../../SFML-2.3.2/INCLUDE" /ZI /nologo /W3 /WX- /sdl /Od /D SFML_STATIC /D WIN32 /D _DEBUG /D _CONSOLE /D _LIB /D _UNICODE /D UNICODE /Gm /EHsc /RTC1 /MDd /GS /fp:precise /Zc:wchar_t /Zc:forScope /Zc:inline /Yu"stdafx.h" /Fp"X64\DEBUG\PONGV2.PCH" /Fo"X64\DEBUG\\" /Fd"X64\DEBUG\VC140.PDB" /Gd /TP C:\USERS\PHIL MCKRAKEN\DOCUMENTS\VISUAL STUDIO 2015\PROJECTS\PONGV2\PONGV2\PONGV2.CPP
^C:\USERS\PHIL MCKRAKEN\DOCUMENTS\VISUAL STUDIO 2015\PROJECTS\PONGV2\PONGV2\GAME.CPP
/c /I"../../../../SFML-2.3.2/INCLUDE" /ZI /nologo /W3 /WX- /sdl /Od /D SFML_STATIC /D WIN32 /D _DEBUG /D _CONSOLE /D _LIB /D _UNICODE /D UNICODE /Gm /EHsc /RTC1 /MDd /GS /fp:precise /Zc:wchar_t /Zc:forScope /Zc:inline /Yu"stdafx.h" /Fp"X64\DEBUG\PONGV2.PCH" /Fo"X64\DEBUG\\" /Fd"X64\DEBUG\VC140.PDB" /Gd /TP C:\USERS\PHIL MCKRAKEN\DOCUMENTS\VISUAL STUDIO 2015\PROJECTS\PONGV2\PONGV2\GAME.CPP
^C:\USERS\PHIL MCKRAKEN\DOCUMENTS\VISUAL STUDIO 2015\PROJECTS\PONGV2\PONGV2\BALL.CPP
/c /I"../../../../SFML-2.3.2/INCLUDE" /ZI /nologo /W3 /WX- /sdl /Od /D SFML_STATIC /D WIN32 /D _DEBUG /D _CONSOLE /D _LIB /D _UNICODE /D UNICODE /Gm /EHsc /RTC1 /MDd /GS /fp:precise /Zc:wchar_t /Zc:forScope /Zc:inline /Yu"stdafx.h" /Fp"X64\DEBUG\PONGV2.PCH" /Fo"X64\DEBUG\\" /Fd"X64\DEBUG\VC140.PDB" /Gd /TP C:\USERS\PHIL MCKRAKEN\DOCUMENTS\VISUAL STUDIO 2015\PROJECTS\PONGV2\PONGV2\BALL.CPP
^C:\USERS\PHIL MCKRAKEN\DOCUMENTS\VISUAL STUDIO 2015\PROJECTS\PONGV2\PONGV2\PADDLE.CPP
/c /I"../../../../SFML-2.3.2/INCLUDE" /ZI /nologo /W3 /WX- /sdl /Od /D SFML_STATIC /D WIN32 /D _DEBUG /D _CONSOLE /D _LIB /D _UNICODE /D UNICODE /Gm /EHsc /RTC1 /MDd /GS /fp:precise /Zc:wchar_t /Zc:forScope /Zc:inline /Yu"stdafx.h" /Fp"X64\DEBUG\PONGV2.PCH" /Fo"X64\DEBUG\\" /Fd"X64\DEBUG\VC140.PDB" /Gd /TP C:\USERS\PHIL MCKRAKEN\DOCUMENTS\VISUAL STUDIO 2015\PROJECTS\PONGV2\PONGV2\PADDLE.CPP
