^C:\USERS\PHIL MCKRAKEN\DOCUMENTS\VISUAL STUDIO 2015\PROJECTS\PONGV2\PONGV2\STDAFX.CPP
C:\USERS\PHIL MCKRAKEN\DOCUMENTS\VISUAL STUDIO 2015\PROJECTS\PONGV2\PONGV2\X64\DEBUG\PONGV2.PCH
C:\USERS\PHIL MCKRAKEN\DOCUMENTS\VISUAL STUDIO 2015\PROJECTS\PONGV2\PONGV2\X64\DEBUG\VC140.PDB
C:\USERS\PHIL MCKRAKEN\DOCUMENTS\VISUAL STUDIO 2015\PROJECTS\PONGV2\PONGV2\X64\DEBUG\VC140.IDB
C:\USERS\PHIL MCKRAKEN\DOCUMENTS\VISUAL STUDIO 2015\PROJECTS\PONGV2\PONGV2\X64\DEBUG\STDAFX.OBJ
^C:\USERS\PHIL MCKRAKEN\DOCUMENTS\VISUAL STUDIO 2015\PROJECTS\PONGV2\PONGV2\PONGV2.CPP
C:\USERS\PHIL MCKRAKEN\DOCUMENTS\VISUAL STUDIO 2015\PROJECTS\PONGV2\PONGV2\X64\DEBUG\VC140.PDB
C:\USERS\PHIL MCKRAKEN\DOCUMENTS\VISUAL STUDIO 2015\PROJECTS\PONGV2\PONGV2\X64\DEBUG\VC140.IDB
^C:\USERS\PHIL MCKRAKEN\DOCUMENTS\VISUAL STUDIO 2015\PROJECTS\PONGV2\PONGV2\GAME.CPP|C:\USERS\PHIL MCKRAKEN\DOCUMENTS\VISUAL STUDIO 2015\PROJECTS\PONGV2\PONGV2\PONGV2.CPP
C:\USERS\PHIL MCKRAKEN\DOCUMENTS\VISUAL STUDIO 2015\PROJECTS\PONGV2\PONGV2\X64\DEBUG\VC140.PDB
C:\USERS\PHIL MCKRAKEN\DOCUMENTS\VISUAL STUDIO 2015\PROJECTS\PONGV2\PONGV2\X64\DEBUG\VC140.IDB
C:\USERS\PHIL MCKRAKEN\DOCUMENTS\VISUAL STUDIO 2015\PROJECTS\PONGV2\PONGV2\X64\DEBUG\GAME.OBJ
C:\USERS\PHIL MCKRAKEN\DOCUMENTS\VISUAL STUDIO 2015\PROJECTS\PONGV2\PONGV2\X64\DEBUG\PONGV2.OBJ
^C:\USERS\PHIL MCKRAKEN\DOCUMENTS\VISUAL STUDIO 2015\PROJECTS\PONGV2\PONGV2\GAME.CPP
C:\USERS\PHIL MCKRAKEN\DOCUMENTS\VISUAL STUDIO 2015\PROJECTS\PONGV2\PONGV2\X64\DEBUG\VC140.PDB
C:\USERS\PHIL MCKRAKEN\DOCUMENTS\VISUAL STUDIO 2015\PROJECTS\PONGV2\PONGV2\X64\DEBUG\VC140.IDB
C:\USERS\PHIL MCKRAKEN\DOCUMENTS\VISUAL STUDIO 2015\PROJECTS\PONGV2\PONGV2\X64\DEBUG\GAME.OBJ
^C:\USERS\PHIL MCKRAKEN\DOCUMENTS\VISUAL STUDIO 2015\PROJECTS\PONGV2\PONGV2\BALL.CPP|C:\USERS\PHIL MCKRAKEN\DOCUMENTS\VISUAL STUDIO 2015\PROJECTS\PONGV2\PONGV2\GAME.CPP|C:\USERS\PHIL MCKRAKEN\DOCUMENTS\VISUAL STUDIO 2015\PROJECTS\PONGV2\PONGV2\PONGV2.CPP
C:\USERS\PHIL MCKRAKEN\DOCUMENTS\VISUAL STUDIO 2015\PROJECTS\PONGV2\PONGV2\X64\DEBUG\VC140.PDB
C:\USERS\PHIL MCKRAKEN\DOCUMENTS\VISUAL STUDIO 2015\PROJECTS\PONGV2\PONGV2\X64\DEBUG\VC140.IDB
C:\USERS\PHIL MCKRAKEN\DOCUMENTS\VISUAL STUDIO 2015\PROJECTS\PONGV2\PONGV2\X64\DEBUG\PONGV2.OBJ
C:\USERS\PHIL MCKRAKEN\DOCUMENTS\VISUAL STUDIO 2015\PROJECTS\PONGV2\PONGV2\X64\DEBUG\BALL.OBJ
C:\USERS\PHIL MCKRAKEN\DOCUMENTS\VISUAL STUDIO 2015\PROJECTS\PONGV2\PONGV2\X64\DEBUG\GAME.OBJ
^C:\USERS\PHIL MCKRAKEN\DOCUMENTS\VISUAL STUDIO 2015\PROJECTS\PONGV2\PONGV2\BALL.CPP
C:\USERS\PHIL MCKRAKEN\DOCUMENTS\VISUAL STUDIO 2015\PROJECTS\PONGV2\PONGV2\X64\DEBUG\VC140.PDB
C:\USERS\PHIL MCKRAKEN\DOCUMENTS\VISUAL STUDIO 2015\PROJECTS\PONGV2\PONGV2\X64\DEBUG\VC140.IDB
C:\USERS\PHIL MCKRAKEN\DOCUMENTS\VISUAL STUDIO 2015\PROJECTS\PONGV2\PONGV2\X64\DEBUG\BALL.OBJ
^C:\USERS\PHIL MCKRAKEN\DOCUMENTS\VISUAL STUDIO 2015\PROJECTS\PONGV2\PONGV2\BALL.CPP|C:\USERS\PHIL MCKRAKEN\DOCUMENTS\VISUAL STUDIO 2015\PROJECTS\PONGV2\PONGV2\GAME.CPP|C:\USERS\PHIL MCKRAKEN\DOCUMENTS\VISUAL STUDIO 2015\PROJECTS\PONGV2\PONGV2\PADDLE.CPP|C:\USERS\PHIL MCKRAKEN\DOCUMENTS\VISUAL STUDIO 2015\PROJECTS\PONGV2\PONGV2\PONGV2.CPP
C:\USERS\PHIL MCKRAKEN\DOCUMENTS\VISUAL STUDIO 2015\PROJECTS\PONGV2\PONGV2\X64\DEBUG\VC140.PDB
C:\USERS\PHIL MCKRAKEN\DOCUMENTS\VISUAL STUDIO 2015\PROJECTS\PONGV2\PONGV2\X64\DEBUG\VC140.IDB
C:\USERS\PHIL MCKRAKEN\DOCUMENTS\VISUAL STUDIO 2015\PROJECTS\PONGV2\PONGV2\X64\DEBUG\BALL.OBJ
C:\USERS\PHIL MCKRAKEN\DOCUMENTS\VISUAL STUDIO 2015\PROJECTS\PONGV2\PONGV2\X64\DEBUG\PADDLE.OBJ
C:\USERS\PHIL MCKRAKEN\DOCUMENTS\VISUAL STUDIO 2015\PROJECTS\PONGV2\PONGV2\X64\DEBUG\PONGV2.OBJ
C:\USERS\PHIL MCKRAKEN\DOCUMENTS\VISUAL STUDIO 2015\PROJECTS\PONGV2\PONGV2\X64\DEBUG\GAME.OBJ
^C:\USERS\PHIL MCKRAKEN\DOCUMENTS\VISUAL STUDIO 2015\PROJECTS\PONGV2\PONGV2\PADDLE.CPP
C:\USERS\PHIL MCKRAKEN\DOCUMENTS\VISUAL STUDIO 2015\PROJECTS\PONGV2\PONGV2\X64\DEBUG\VC140.PDB
C:\USERS\PHIL MCKRAKEN\DOCUMENTS\VISUAL STUDIO 2015\PROJECTS\PONGV2\PONGV2\X64\DEBUG\VC140.IDB
C:\USERS\PHIL MCKRAKEN\DOCUMENTS\VISUAL STUDIO 2015\PROJECTS\PONGV2\PONGV2\X64\DEBUG\PADDLE.OBJ
^C:\USERS\PHIL MCKRAKEN\DOCUMENTS\VISUAL STUDIO 2015\PROJECTS\PONGV2\PONGV2\GAME.CPP|C:\USERS\PHIL MCKRAKEN\DOCUMENTS\VISUAL STUDIO 2015\PROJECTS\PONGV2\PONGV2\PADDLE.CPP|C:\USERS\PHIL MCKRAKEN\DOCUMENTS\VISUAL STUDIO 2015\PROJECTS\PONGV2\PONGV2\PONGV2.CPP
C:\USERS\PHIL MCKRAKEN\DOCUMENTS\VISUAL STUDIO 2015\PROJECTS\PONGV2\PONGV2\X64\DEBUG\VC140.PDB
C:\USERS\PHIL MCKRAKEN\DOCUMENTS\VISUAL STUDIO 2015\PROJECTS\PONGV2\PONGV2\X64\DEBUG\VC140.IDB
C:\USERS\PHIL MCKRAKEN\DOCUMENTS\VISUAL STUDIO 2015\PROJECTS\PONGV2\PONGV2\X64\DEBUG\PONGV2.OBJ
C:\USERS\PHIL MCKRAKEN\DOCUMENTS\VISUAL STUDIO 2015\PROJECTS\PONGV2\PONGV2\X64\DEBUG\GAME.OBJ
^C:\USERS\PHIL MCKRAKEN\DOCUMENTS\VISUAL STUDIO 2015\PROJECTS\PONGV2\PONGV2\BALL.CPP|C:\USERS\PHIL MCKRAKEN\DOCUMENTS\VISUAL STUDIO 2015\PROJECTS\PONGV2\PONGV2\GAME.CPP
C:\USERS\PHIL MCKRAKEN\DOCUMENTS\VISUAL STUDIO 2015\PROJECTS\PONGV2\PONGV2\X64\DEBUG\VC140.PDB
C:\USERS\PHIL MCKRAKEN\DOCUMENTS\VISUAL STUDIO 2015\PROJECTS\PONGV2\PONGV2\X64\DEBUG\VC140.IDB
C:\USERS\PHIL MCKRAKEN\DOCUMENTS\VISUAL STUDIO 2015\PROJECTS\PONGV2\PONGV2\X64\DEBUG\BALL.OBJ
C:\USERS\PHIL MCKRAKEN\DOCUMENTS\VISUAL STUDIO 2015\PROJECTS\PONGV2\PONGV2\X64\DEBUG\GAME.OBJ
